
<svg width="24px" height="24px" viewBox="0 0 24 24" version="1.1" xmlns="http://www.w3.org/2000/svg" xmlns:xlink="http://www.w3.org/1999/xlink">
    <g id="COMPLETE---Navigation" stroke="none" stroke-width="1" fill="none" fill-rule="evenodd">
        <g id="Mobile-Nav" transform="translate(-281.000000, -18.000000)" fill="#ffffff">
            <g id="iconmonstr-x-mark-1" transform="translate(281.000000, 18.000000)">
                <polygon id="Shape" points="24 20.188 15.685 11.979 23.885 3.697 20.188 -8.8817842e-16 11.976 8.318 3.666 0.115 -1.33226763e-15 3.781 8.321 12.021 0.115 20.334 3.781 24 12.018 15.682 20.303 23.885"></polygon>
            </g>
        </g>
    </g>
</svg>
